\relax 
\@writefile{toc}{\contentsline {section}{\numberline {1}1}{1}}
\@writefile{toc}{\contentsline {section}{\numberline {2}Supervised Learning - Algorithms}{1}}
\citation{Bishop2006}
\@writefile{toc}{\contentsline {subsection}{\numberline {2.1}Least Squares}{2}}
\citation{Bishop2006}
\@writefile{toc}{\contentsline {subsection}{\numberline {2.2}K-Nearest Neighbor}{3}}
\@writefile{toc}{\contentsline {subsection}{\numberline {2.3}Fisher Discriminant}{3}}
\citation{freund1995,freund1997}
\@writefile{lot}{\contentsline {table}{\numberline {1}{\ignorespaces Distance Metrics: given an $mx \times n$ data matrix X, which is treated as $mx(1 \times n)$ row vectors $x_{1},x_{2},...,x_{m_{x}}$, and a $my \times n$ data matrix Y, $my(1 \times n)$ row vectors $y_{1},y_{2},...,y_{m_{y}}$, the various distances between the vector $x_{s}$ and $y_{t}$ is defined as follows.\relax }}{4}}
\providecommand*\caption@xref[2]{\@setref\relax\@undefined{#1}}
\newlabel{distancemetrics}{{1}{4}}
\@writefile{toc}{\contentsline {subsection}{\numberline {2.4}Neural Network}{4}}
\@writefile{toc}{\contentsline {subsection}{\numberline {2.5}Random Forest}{4}}
\@writefile{toc}{\contentsline {subsection}{\numberline {2.6}AdaBoost}{4}}
\@writefile{lof}{\contentsline {figure}{\numberline {1}{\ignorespaces The algorithm of AdaBoost.M1.\relax }}{5}}
\newlabel{adboostm1}{{1}{5}}
\@writefile{toc}{\contentsline {subsubsection}{\numberline {2.6.1}AdaBoost.M1}{5}}
\@writefile{lof}{\contentsline {figure}{\numberline {2}{\ignorespaces The algorithm of AdaBoost.M1.\relax }}{6}}
\newlabel{adboostm2}{{2}{6}}
\@writefile{toc}{\contentsline {subsubsection}{\numberline {2.6.2}AdaBoost.M2}{6}}
\citation{cortes1995}
\@writefile{toc}{\contentsline {subsection}{\numberline {2.7}Naive Bayes}{7}}
\@writefile{toc}{\contentsline {subsection}{\numberline {2.8}Support Vector Machines}{7}}
\@writefile{lof}{\contentsline {figure}{\numberline {3}{\ignorespaces An example of optimal hyperplanes.\relax }}{7}}
\newlabel{opthyp}{{3}{7}}
\citation{burges1998}
\citation{boser1992}
\newlabel{leave1out}{{8}{8}}
\@writefile{lof}{\contentsline {figure}{\numberline {4}{\ignorespaces SVMs can be described as a two layer network.\relax }}{9}}
\newlabel{twonet}{{4}{9}}
\@writefile{lof}{\contentsline {figure}{\numberline {5}{\ignorespaces The interchange between feature transformation and dot-products.\relax }}{9}}
\newlabel{interchange}{{5}{9}}
\@writefile{toc}{\contentsline {subsubsection}{\numberline {2.8.1}The Soft Margin Hyperplane}{9}}
\newlabel{error1}{{9}{9}}
\newlabel{softmargin1}{{11}{10}}
\newlabel{softmargin2}{{12}{10}}
\newlabel{lagrange1}{{13}{11}}
\newlabel{derivative2}{{14}{11}}
\newlabel{dual2}{{16}{11}}
\newlabel{dual3}{{17}{11}}
\newlabel{squareerror}{{20}{12}}
\@writefile{toc}{\contentsline {subsubsection}{\numberline {2.8.2}Convolution of the Dot-Product in the Feature Space $ \mathcal  {F} $}{13}}
\citation{boser1992}
\citation{aizerman1964}
\citation{burges1998}
\newlabel{kernel1}{{26}{14}}
\newlabel{kerneleigen1}{{27}{14}}
\citation{scholkopf2000}
\@writefile{lot}{\contentsline {table}{\numberline {2}{\ignorespaces The common kernel functions\relax }}{15}}
\newlabel{kernelfun}{{2}{15}}
\@writefile{toc}{\contentsline {subsubsection}{\numberline {2.8.3}$ \nu $ Support Vector Classification}{15}}
\newlabel{csvc}{{31}{15}}
\newlabel{newsvc}{{32}{16}}
\newlabel{constraint1}{{33}{16}}
\newlabel{constraint2}{{34}{16}}
\newlabel{constraint3}{{35}{16}}
\newlabel{lagrange}{{36}{16}}
\newlabel{dualobj}{{41}{16}}
\newlabel{dualconstraint1}{{42}{16}}
\newlabel{dualconstraint3}{{44}{16}}
\citation{cortes1995}
\citation{cortes1995}
\citation{scholkopf2000}
\citation{burges2000}
\citation{burges2000}
\citation{burges2000}
\citation{chang2001}
\citation{Giraldo2013}
\@writefile{toc}{\contentsline {subsubsection}{\numberline {2.8.4}A Geometric Interpretation of $ \nu $-SVC \cite  {burges2000}}{18}}
\@writefile{toc}{\contentsline {subsubsection}{\numberline {2.8.5}Something Other about $ \nu $-SVC}{18}}
\@writefile{toc}{\contentsline {subsection}{\numberline {2.9}Rate Distortion Auto-Encoders}{18}}
\citation{Giraldo2013}
\newlabel{MetricLearningEQUATION}{{2.9}{19}}
\newlabel{Kernel}{{2.9}{19}}
\citation{Mangasarian1990,Wolberg1990,Mangasarian19902,Bennett1992}
\citation{Garris1994}
\citation{Baldi}
\@writefile{toc}{\contentsline {subsection}{\numberline {2.10}The C-Loss function for Pattern Classification}{20}}
\@writefile{toc}{\contentsline {subsection}{\numberline {2.11}Graphical Models}{20}}
\@writefile{toc}{\contentsline {subsection}{\numberline {2.12}Inference Network}{20}}
\@writefile{toc}{\contentsline {section}{\numberline {3}Data Sets}{20}}
\citation{Guyon2006}
\citation{Danziger2009,Danziger2007,Danziger20062}
\@writefile{lot}{\contentsline {table}{\numberline {3}{\ignorespaces Datasets\relax }}{21}}
\newlabel{Datasets}{{3}{21}}
\@writefile{toc}{\contentsline {section}{\numberline {4}Learning Approach}{21}}
\bibcite{Bishop}{1}
\bibcite{Mangasarian1990}{2}
\bibcite{Wolberg1990}{3}
\@writefile{toc}{\contentsline {section}{\numberline {5}Results}{22}}
\@writefile{lot}{\contentsline {table}{\numberline {4}{\ignorespaces Results for Least Squares algorithm.\relax }}{22}}
\newlabel{resultsleastsquares}{{4}{22}}
\@writefile{lot}{\contentsline {table}{\numberline {5}{\ignorespaces Results for k-NN algorithm.\relax }}{22}}
\newlabel{resultskNN}{{5}{22}}
\@writefile{toc}{\contentsline {section}{\numberline {6}Conclusions}{22}}
\@writefile{lot}{\contentsline {table}{\numberline {6}{\ignorespaces Results for Fisher Discriminant.\relax }}{23}}
\newlabel{resultsfisher}{{6}{23}}
\@writefile{lot}{\contentsline {table}{\numberline {7}{\ignorespaces Results for Neural Network.\relax }}{23}}
\newlabel{resultsNN}{{7}{23}}
\@writefile{lot}{\contentsline {table}{\numberline {8}{\ignorespaces Results for Random Forest.\relax }}{23}}
\newlabel{resultsrandomforest}{{8}{23}}
\bibcite{Mangasarian19902}{4}
\@writefile{lot}{\contentsline {table}{\numberline {9}{\ignorespaces Results for Data Boost.\relax }}{24}}
\newlabel{resultsdataboost}{{9}{24}}
\@writefile{lot}{\contentsline {table}{\numberline {10}{\ignorespaces Results for Naive Bayes.\relax }}{24}}
\newlabel{resultsnaivebayes}{{10}{24}}
\@writefile{lot}{\contentsline {table}{\numberline {11}{\ignorespaces Results for Support Vector Machines.\relax }}{24}}
\newlabel{resultsSVM}{{11}{24}}
\@writefile{lot}{\contentsline {table}{\numberline {12}{\ignorespaces Results for Rate-distortion Neural Networks.\relax }}{25}}
\newlabel{resultsratedistortionNN}{{12}{25}}
\@writefile{lot}{\contentsline {table}{\numberline {13}{\ignorespaces Results for the C-loss function for Pattern Classification.\relax }}{25}}
\newlabel{resultsCloss}{{13}{25}}
\@writefile{lot}{\contentsline {table}{\numberline {14}{\ignorespaces Results for Graphical Models.\relax }}{25}}
\newlabel{resultsgraphical}{{14}{25}}
\bibcite{Bennett1992}{5}
\bibcite{Garris1994}{6}
\bibcite{Baldi}{7}
\bibcite{Guyon2006}{8}
\bibcite{Danziger2009}{9}
\bibcite{Danziger2007}{10}
\bibcite{Danziger20062}{11}
\bibcite{Bishop2006}{12}
\bibcite{Giraldo2013}{13}
\@writefile{lot}{\contentsline {table}{\numberline {15}{\ignorespaces Results for Inference Network.\relax }}{26}}
\newlabel{resultsInferencenetwork}{{15}{26}}
\bibcite{freund1995}{14}
\bibcite{freund1997}{15}
\bibcite{muller2001}{16}
\bibcite{burges1998}{17}
\bibcite{vapnik1995}{18}
\bibcite{cortes1995}{19}
\bibcite{boser1992}{20}
\bibcite{chang2001}{21}
\bibcite{burges2000}{22}
\bibcite{scholkopf2000}{23}
